<?xml version="1.0" standalone="no"?>
<!DOCTYPE svg PUBLIC "-//W3C//DTD SVG 1.1//EN" "http://www.w3.org/Graphics/SVG/1.1/DTD/svg11.dtd" >
<svg xmlns="http://www.w3.org/2000/svg">
<metadata>Generated by IcoMoon</metadata>
<defs>
<font id="ss-custom" horiz-adv-x="512">
<font-face units-per-em="512" ascent="480" descent="-32" />
<missing-glyph horiz-adv-x="512" />
<glyph unicode="&#x20;" d="" horiz-adv-x="256" />
<glyph unicode="&#xe600;" d="M299.019 94.865c-9.646 14.82-11.794 32.49-11.794 51.485 0 10.762 1.822 21.089 5.135 30.727-0.473 0.365-0.981 0.702-1.44 1.085-6.269 5.87-11.11 13.175-13.745 22.493-0.796 3.313-1.325 6.822-1.471 10.608 5.449 0.64 10.831 1.436 16.127 2.448 22.656 3.596 43.356 11.468 59.928 28.415 1.85 1.735 3.679 3.529 5.449 5.456-0.236 0.32-0.435 0.65-0.668 0.974-24.771 36.262-24.76 77.493-25.831 118.14-0.942 35.821-13.345 66.266-42.267 86.886-13.338 9.51-38.87 25.028-67.647 24.569-28.776 0.459-54.309-15.059-67.654-24.572-28.922-20.619-41.325-51.065-42.267-86.888-1.071-40.644-1.061-81.879-25.831-118.141-0.23-0.323-0.431-0.654-0.668-0.974 1.77-1.927 3.599-3.72 5.448-5.456 16.575-16.947 37.275-24.819 59.931-28.415 5.292-1.012 10.674-1.812 16.123-2.448-0.146-3.786-0.674-7.298-1.471-10.608-2.632-9.315-7.476-16.62-13.745-22.497-2.531-2.1-5.285-3.998-8.345-5.577-25.511-13.161-51.802-24.98-78.377-35.87-1.999-0.817-3.968-1.666-5.915-2.535-26.85-11.655-48.144-28.79-58.026-58.216v-38.856h244.72l54.298 57.768zM413.995 228.596c-54.041 0-98.009-43.964-98.009-98.005 0-18.067 4.945-35.633 14.322-50.985l-71.909-71.909c-8.341-8.341-8.341-21.919 0-30.268l2.817-2.81c4.041-4.041 9.416-6.265 15.132-6.265s11.089 2.226 15.135 6.265l71.997 72c15.25-9.194 32.654-14.037 50.515-14.037 54.041 0 98.005 43.964 98.005 98.005s-43.964 98.008-98.005 98.008zM413.995 70.512c-33.126 0-60.077 26.951-60.077 60.077s26.951 60.077 60.077 60.077 60.077-26.951 60.077-60.077-26.947-60.077-60.077-60.077z" />
</font></defs></svg>