<?xml version="1.0" encoding="utf-8"?>
<!-- Generator: Adobe Illustrator 24.3.0, SVG Export Plug-In . SVG Version: 6.00 Build 0)  -->
<svg version="1.1" xmlns="http://www.w3.org/2000/svg" xmlns:xlink="http://www.w3.org/1999/xlink" x="0px" y="0px"
	 viewBox="0 0 489 489" style="enable-background:new 0 0 489 489;" xml:space="preserve">
<rect style="fill:#F3CE51;" width="489" height="489"/>
<g>
	<path style="fill:#1F2121;" d="M220.5,265.3v111.3h-61.8V265.3l-83.6-153h71.7l50.8,100.6l50.2-100.6h55.3L220.5,265.3z"/>
	<path style="fill:#1F2121;" d="M383.9,375.5h-61.2V112.3h61.2V375.5z"/>
</g>
</svg>
